^E:\DOCUMENTS\DOCUMENTS\DEVELOPMENT\ENGINE\ENGINE\ENGINE\X64\DEBUG\GAME.OBJ|E:\DOCUMENTS\DOCUMENTS\DEVELOPMENT\ENGINE\ENGINE\ENGINE\X64\DEBUG\GAMEOBJECT.OBJ|E:\DOCUMENTS\DOCUMENTS\DEVELOPMENT\ENGINE\ENGINE\ENGINE\X64\DEBUG\MAIN.OBJ|E:\DOCUMENTS\DOCUMENTS\DEVELOPMENT\ENGINE\ENGINE\ENGINE\X64\DEBUG\MAP.OBJ|E:\DOCUMENTS\DOCUMENTS\DEVELOPMENT\ENGINE\ENGINE\ENGINE\X64\DEBUG\TEXTUREMANAGER.OBJ
C:\WINDOWS\GLOBALIZATION\SORTING\SORTDEFAULT.NLS
E:\DOCUMENTS\DOCUMENTS\DEVELOPMENT\SDL2-DEVEL-2.0.8-VC\SDL2-2.0.8\LIB\X64\SDL2.LIB
E:\DOCUMENTS\DOCUMENTS\DEVELOPMENT\SDL2-DEVEL-2.0.8-VC\SDL2-2.0.8\LIB\X64\SDL2MAIN.LIB
E:\DOCUMENTS\DOCUMENTS\DEVELOPMENT\SDL2_IMAGE-DEVEL-2.0.3-VC\SDL2_IMAGE-2.0.3\LIB\X64\SDL2_IMAGE.LIB
C:\PROGRAM FILES (X86)\WINDOWS KITS\10\LIB\10.0.16299.0\UM\X64\KERNEL32.LIB
C:\PROGRAM FILES (X86)\WINDOWS KITS\10\LIB\10.0.16299.0\UM\X64\USER32.LIB
C:\PROGRAM FILES (X86)\WINDOWS KITS\10\LIB\10.0.16299.0\UM\X64\GDI32.LIB
C:\PROGRAM FILES (X86)\WINDOWS KITS\10\LIB\10.0.16299.0\UM\X64\WINSPOOL.LIB
C:\PROGRAM FILES (X86)\WINDOWS KITS\10\LIB\10.0.16299.0\UM\X64\COMDLG32.LIB
C:\PROGRAM FILES (X86)\WINDOWS KITS\10\LIB\10.0.16299.0\UM\X64\ADVAPI32.LIB
C:\PROGRAM FILES (X86)\WINDOWS KITS\10\LIB\10.0.16299.0\UM\X64\SHELL32.LIB
C:\PROGRAM FILES (X86)\WINDOWS KITS\10\LIB\10.0.16299.0\UM\X64\OLE32.LIB
C:\PROGRAM FILES (X86)\WINDOWS KITS\10\LIB\10.0.16299.0\UM\X64\OLEAUT32.LIB
C:\PROGRAM FILES (X86)\WINDOWS KITS\10\LIB\10.0.16299.0\UM\X64\UUID.LIB
C:\PROGRAM FILES (X86)\WINDOWS KITS\10\LIB\10.0.16299.0\UM\X64\ODBC32.LIB
C:\PROGRAM FILES (X86)\WINDOWS KITS\10\LIB\10.0.16299.0\UM\X64\ODBCCP32.LIB
E:\DOCUMENTS\DOCUMENTS\DEVELOPMENT\ENGINE\ENGINE\ENGINE\X64\DEBUG\GAME.OBJ
E:\DOCUMENTS\DOCUMENTS\DEVELOPMENT\ENGINE\ENGINE\ENGINE\X64\DEBUG\GAMEOBJECT.OBJ
E:\DOCUMENTS\DOCUMENTS\DEVELOPMENT\ENGINE\ENGINE\ENGINE\X64\DEBUG\MAIN.OBJ
E:\DOCUMENTS\DOCUMENTS\DEVELOPMENT\ENGINE\ENGINE\ENGINE\X64\DEBUG\MAP.OBJ
E:\DOCUMENTS\DOCUMENTS\DEVELOPMENT\ENGINE\ENGINE\ENGINE\X64\DEBUG\TEXTUREMANAGER.OBJ
C:\WINDOWS\SYSTEM32\TZRES.DLL
E:\PROGRAM FILES (X86)\MICROSOFT VISUAL STUDIO\2017\COMMUNITY\VC\TOOLS\MSVC\14.12.25827\LIB\X64\MSVCPRTD.LIB
E:\PROGRAM FILES (X86)\MICROSOFT VISUAL STUDIO\2017\COMMUNITY\VC\TOOLS\MSVC\14.12.25827\LIB\X64\MSVCRTD.LIB
E:\PROGRAM FILES (X86)\MICROSOFT VISUAL STUDIO\2017\COMMUNITY\VC\TOOLS\MSVC\14.12.25827\LIB\X64\OLDNAMES.LIB
E:\PROGRAM FILES (X86)\MICROSOFT VISUAL STUDIO\2017\COMMUNITY\VC\TOOLS\MSVC\14.12.25827\LIB\X64\VCRUNTIMED.LIB
C:\PROGRAM FILES (X86)\WINDOWS KITS\10\LIB\10.0.16299.0\UCRT\X64\UCRTD.LIB
E:\PROGRAM FILES (X86)\MICROSOFT VISUAL STUDIO\2017\COMMUNITY\VC\TOOLS\MSVC\14.12.25827\BIN\HOSTX86\X64\LINK.EXE
C:\PROGRAM FILES (X86)\WINDOWS KITS\10\BIN\10.0.16299.0\X86\RC.EXE
E:\PROGRAM FILES (X86)\MICROSOFT VISUAL STUDIO\2017\COMMUNITY\VC\TOOLS\MSVC\14.12.25827\BIN\HOSTX86\X86\CVTRES.EXE
